nw/APW_ENG_20030610.0554
nw/APW_ENG_20030331.0410
nw/APW_ENG_20030324.0768
nw/APW_ENG_20030419.0358
nw/AFP_ENG_20030508.0357
nw/APW_ENG_20030408.0090
nw/XIN_ENG_20030616.0274
nw/XIN_ENG_20030513.0002
nw/AFP_ENG_20030617.0846
nw/APW_ENG_20030418.0084
nw/AFP_ENG_20030616.0715
nw/APW_ENG_20030409.0013
nw/APW_ENG_20030502.0686
nw/APW_ENG_20030326.0190
nw/AFP_ENG_20030601.0262
nw/AFP_ENG_20030428.0720
nw/APW_ENG_20030520.0081
nw/AFP_ENG_20030415.0734
nw/APW_ENG_20030407.0030
nw/XIN_ENG_20030324.0191
nw/APW_ENG_20030404.0439
nw/AFP_ENG_20030427.0118
nw/XIN_ENG_20030610.0299
nw/AFP_ENG_20030522.0878
nw/APW_ENG_20030424.0532
nw/AFP_ENG_20030319.0879
nw/AFP_ENG_20030425.0408
nw/AFP_ENG_20030528.0561
nw/NYT_ENG_20030630.0079
nw/AFP_ENG_20030327.0224
nw/XIN_ENG_20030509.0137
nw/APW_ENG_20030422.0485
nw/AFP_ENG_20030607.0030
nw/AFP_ENG_20030418.0556
nw/AFP_ENG_20030413.0098
nw/APW_ENG_20030602.0037
nw/NYT_ENG_20030403.0008
nw/AFP_ENG_20030327.0022
nw/APW_ENG_20030510.0228
nw/APW_ENG_20030304.0555
nw/XIN_ENG_20030423.0011
nw/XIN_ENG_20030609.0118
nw/AFP_ENG_20030401.0476
nw/APW_ENG_20030410.0906
nw/AFP_ENG_20030504.0248
nw/APW_ENG_20030327.0376
nw/AFP_ENG_20030429.0007
nw/APW_ENG_20030619.0383
nw/AFP_ENG_20030311.0491
nw/XIN_ENG_20030415.0379
nw/AFP_ENG_20030509.0345
nw/XIN_ENG_20030523.0202
nw/AFP_ENG_20030430.0075
nw/AFP_ENG_20030417.0307
nw/APW_ENG_20030411.0304
nw/APW_ENG_20030403.0862
nw/APW_ENG_20030406.0191
